[
  {
    "name": "Purdy"
  },
  {
    "name": "Bethel"
  },
  {
    "name": "Fernwood"
  },
  {
    "name": "Southworth"
  },
  {
    "name": "Belfair"
  },
  {
    "name": "Parkwood"
  },
  {
    "name": "Port Orchard"
  },
  {
    "name": "Bainbridge Island"
  },
  {
    "name": "Bremerton"
  },
  {
    "name": "Silverdale"
  },
  {
    "name": "Poulsbo"
  },
  {
    "name": "Kingston"
  },
  {
    "name": "Port Gambler"
  },
  {
    "name": "Shelton"
  },
  {
    "name": "Belfair"
  },
  {
    "name": "Hoodsport"
  },
  {
    "name": "Port Ludlow"
  },
  {
    "name": "Port Townsend"
  },
  {
    "name": "Blyn"
  },
  {
    "name": "Sequim"
  },
  {
    "name": "Port Angeles"
  },
  {
    "name": "Aberdeen"
  },
  {
    "name": "Centralia"
  },
  {
    "name": "Chehalis"
  },
  {
    "name": "Napavine"
  },
  {
    "name": "Castle Rock"
  },
  {
    "name": "Longview"
  },
  {
    "name": "Vancouver"
  },
  {
    "name": "Battle Ground"
  },
  {
    "name": "Ocean Shores"
  },
  {
    "name": "Westport"
  },
  {
    "name": "Grayland"
  },
  {
    "name": "Long Beach"
  },
  {
    "name": "Mt Vernon"
  },
  {
    "name": "Burlington"
  },
  {
    "name": "Sedro Wooley"
  },
  {
    "name": "Bellingham"
  },
  {
    "name": "Ferndale"
  },
  {
    "name": "Lynden"
  },
  {
    "name": "Blaine"
  },
  {
    "name": "Cle Elum"
  },
  {
    "name": "Ellensburg"
  },
  {
    "name": "Wenatchee"
  },
  {
    "name": "Yakima"
  },
  {
    "name": "Union Gap"
  },
  {
    "name": "Sunnyside"
  },
  {
    "name": "Toppenish"
  },
  {
    "name": "Soap Lake"
  },
  {
    "name": "Quincy"
  },
  {
    "name": "Chelan"
  },
  {
    "name": "Mason"
  },
  {
    "name": "Moses Lake"
  },
  {
    "name": "Grandview"
  },
  {
    "name": "Prosser"
  },
  {
    "name": "Kennewick"
  },
  {
    "name": "Richland"
  },
  {
    "name": "Walla Walla"
  },
  {
    "name": "Spokane"
  },
  {
    "name": "Sumner"
  }
]
